<svg width="29" height="31" viewBox="0 0 29 31" fill="none" xmlns="http://www.w3.org/2000/svg">
<path d="M14.5001 21.3333C17.7172 21.3333 20.3334 18.717 20.3334 15.5C20.3334 12.2829 17.7172 9.66663 14.5001 9.66663C11.283 9.66663 8.66675 12.2829 8.66675 15.5C8.66675 18.717 11.283 21.3333 14.5001 21.3333ZM14.5001 12.5833C16.0809 12.5833 17.4167 13.9191 17.4167 15.5C17.4167 17.0808 16.0809 18.4166 14.5001 18.4166C12.9192 18.4166 11.5834 17.0808 11.5834 15.5C11.5834 13.9191 12.9192 12.5833 14.5001 12.5833Z" fill="black"/>
<path d="M1.149 21.5316L2.60734 24.0545C3.38171 25.3918 5.24546 25.8935 6.58859 25.1191L7.36005 24.6729C8.2088 25.3393 9.14067 25.8862 10.125 26.2945V27.1666C10.125 28.7752 11.4332 30.0833 13.0417 30.0833H15.9584C17.5669 30.0833 18.875 28.7752 18.875 27.1666V26.2945C19.8594 25.8862 20.7913 25.3393 21.64 24.6743L22.4115 25.1206C23.7575 25.8935 25.6169 25.3948 26.3942 24.0545L27.8511 21.5331C28.6561 20.1404 28.1778 18.3525 26.785 17.5489L26.0486 17.1231C26.1273 16.582 26.1667 16.041 26.1667 15.5C26.1667 14.9589 26.1273 14.4164 26.0486 13.8798L26.785 13.4539C28.1778 12.6489 28.6561 10.8625 27.8511 9.46975L26.3942 6.94829C25.6198 5.60663 23.7575 5.1035 22.4115 5.88079L21.64 6.32704C20.7913 5.66058 19.8594 5.11371 18.875 4.70538V3.83329C18.875 2.22475 17.5669 0.916626 15.9584 0.916626H13.0417C11.4332 0.916626 10.125 2.22475 10.125 3.83329V4.70538C9.14067 5.11371 8.2088 5.66058 7.36005 6.32558L6.58859 5.87933C5.24109 5.10496 3.38025 5.60663 2.60588 6.94684L1.149 9.46829C0.344003 10.861 0.822336 12.6489 2.21504 13.4525L2.9515 13.8783C2.87275 14.4164 2.83338 14.9589 2.83338 15.5C2.83338 16.041 2.87275 16.582 2.9515 17.1202L2.21504 17.546C0.822336 18.351 0.344003 20.1389 1.149 21.5316ZM5.99942 17.5095C5.83463 16.8489 5.75005 16.1723 5.75005 15.5C5.75005 14.8262 5.83463 14.1495 5.99796 13.4904C6.15546 12.8589 5.87692 12.1998 5.31254 11.8745L3.67484 10.9266L5.13025 8.40517L6.80005 9.37059C7.36005 9.69288 8.06442 9.61121 8.53255 9.1635C9.52859 8.21996 10.7303 7.51413 12.0092 7.12329C12.6232 6.93663 13.0417 6.36934 13.0417 5.72913V3.83329H15.9584V5.72913C15.9584 6.36934 16.3769 6.93663 16.9909 7.12329C18.2698 7.51558 19.4715 8.21996 20.4675 9.1635C20.9357 9.61121 21.643 9.69142 22.2 9.37059L23.8684 8.40663L25.3267 10.9281L23.6875 11.8745C23.1232 12.2012 22.8446 12.8604 23.0021 13.4904C23.1655 14.1495 23.25 14.8262 23.25 15.5C23.25 16.1723 23.1655 16.8489 23.0007 17.5095C22.8446 18.141 23.1232 18.8002 23.6875 19.1254L25.3253 20.0718L23.8698 22.5933L22.2 21.6293C21.6415 21.307 20.9357 21.3873 20.4675 21.8364C19.4715 22.78 18.2698 23.4858 16.9909 23.8766C16.3769 24.0633 15.9584 24.6306 15.9584 25.2708L15.9613 27.1666H13.0417V25.2708C13.0417 24.6306 12.6232 24.0633 12.0092 23.8766C10.7303 23.4843 9.52859 22.78 8.53255 21.8364C8.25546 21.571 7.8938 21.4354 7.52921 21.4354C7.27838 21.4354 7.02754 21.4995 6.80005 21.6308L5.13171 22.5962L3.67338 20.0748L5.31254 19.1254C5.87692 18.8002 6.15546 18.141 5.99942 17.5095Z" fill="black"/>
</svg>
