<svg width="110" height="110" viewBox="0 0 110 110" fill="none" xmlns="http://www.w3.org/2000/svg">
<circle cx="55" cy="55" r="44" fill="#F4F4F4"/>
<path d="M11.1925 74.1345C11.066 75.0915 11 76.0485 11 77C11 90.079 22.759 100.562 35.8655 98.802C39.677 105.589 46.937 110 55 110C63.063 110 70.323 105.589 74.1345 98.802C87.2135 100.562 99 90.079 99 77C99 76.0485 98.934 75.0915 98.8075 74.1345C105.589 70.323 110 63.0575 110 55C110 46.9425 105.589 39.677 98.8075 35.8655C98.934 34.9085 99 33.9515 99 33C99 19.921 87.2135 9.416 74.1345 11.198C70.323 4.411 63.063 0 55 0C46.937 0 39.677 4.411 35.8655 11.198C22.759 9.416 11 19.921 11 33C11 33.9515 11.066 34.9085 11.1925 35.8655C4.411 39.677 0 46.9425 0 55C0 63.0575 4.411 70.323 11.1925 74.1345ZM19.1235 44.418L25.1845 42.8065L22.7975 37.015C22.275 35.75 22 34.3585 22 33C22 26.9335 26.9335 22 33 22C34.3585 22 35.7445 22.275 37.015 22.7975L42.812 25.1845L44.4235 19.1235C45.694 14.3385 50.0445 11 55 11C59.9555 11 64.306 14.3385 65.5765 19.1235L67.188 25.1845L72.985 22.7975C74.2555 22.275 75.6415 22 77 22C83.0665 22 88 26.9335 88 33C88 34.3585 87.725 35.75 87.2025 37.015L84.8155 42.8065L90.8765 44.418C95.6615 45.694 99 50.0445 99 55C99 59.9555 95.6615 64.306 90.8765 65.582L84.8155 67.1935L87.2025 72.985C87.725 74.25 88 75.6415 88 77C88 83.0665 83.0665 88 77 88C75.6415 88 74.2555 87.725 72.985 87.2025L67.188 84.8155L65.5765 90.8765C64.306 95.6615 59.9555 99 55 99C50.0445 99 45.694 95.6615 44.4235 90.8765L42.812 84.8155L37.015 87.2025C35.7445 87.725 34.3585 88 33 88C26.9335 88 22 83.0665 22 77C22 75.6415 22.275 74.25 22.7975 72.985L25.1845 67.1935L19.1235 65.582C14.3385 64.306 11 59.9555 11 55C11 50.0445 14.3385 45.694 19.1235 44.418Z" fill="black"/>
<path d="M75.5808 47.905L67.8368 40.095L49.5163 58.2395L42.3883 51.1115L34.6113 58.8885L49.4833 73.7605L75.5808 47.905Z" fill="black"/>
</svg>
