<svg width="10" height="20" viewBox="0 0 10 20" fill="none" xmlns="http://www.w3.org/2000/svg">
<path d="M9.973 6.87507H6.23319V4.37505C6.23319 3.68497 6.79156 3.12497 7.47992 3.12497H8.72648V0H6.23319C4.16756 0 2.49337 1.67866 2.49337 3.74997V6.87507H0V10H2.49337V20H6.23319V10H8.72648L9.973 6.87507Z" fill="#1B80E4"/>
</svg>
